args==0.1.0
astroid==2.1.0
certifi==2018.11.29
chardet==3.0.4
colorama==0.4.1
docopt==0.6.2
idna==2.8
isort==4.3.9
lazy-object-proxy==1.3.1
mccabe==0.6.1
Pillow==5.4.1
pipreqs==0.4.9
pycryptodome==3.7.3
pylint==2.2.2
requests==2.21.0
six==1.12.0
urllib3==1.24.1
wrapt==1.11.1
yarg==0.1.9
